// Bullet1 genrated by blender2ogre 0.5.8

material Bullet1 
{
    receive_shadows on 

    technique
    {
        pass Bullet1
        {
            ambient 0.5312578678131104 0.5814512372016907 0.0 1.0
            diffuse 0.5312578678131104 0.5814512372016907 0.0 1.0
            specular 0.45000001788139343 0.45000001788139343 0.45000001788139343 1.0 4.25
            emissive 0.0 0.0 0.0 1.0

            alpha_to_coverage off
            colour_write on
            cull_hardware clockwise
            depth_check on
            depth_func less_equal
            depth_write on
            illumination_stage 
            light_clip_planes off
            light_scissor off
            lighting on
            normalise_normals off
            polygon_mode solid
            scene_blend one zero
            scene_blend_op add
            shading gouraud
            transparent_sorting on

        }
    }
}
