
material _missing_material_
{
    receive_shadows off
    technique
    {
        pass
        {
            ambient 0.1 0.1 0.1 1.0
            diffuse 0.8 0.0 0.0 1.0
            specular 0.5 0.5 0.5 1.0 12.5
            emissive 0.3 0.3 0.3 1.0
        }
    }
}

// HighRiseResidential.015 genrated by blender2ogre 0.6.0

material HighRiseResidential.015 
{
    receive_shadows on 

    technique
    {
        pass HighRiseResidential.015
        {
            ambient 0.8078431487083435 0.8078431487083435 0.8078431487083435 1.0
            diffuse 0.6462745285969156 0.6462745285969156 0.6462745285969156 1.0
            specular 0.10000000149011612 0.10000000149011612 0.10000000149011612 1.0 12.5
            emissive 0.0 0.0 0.0 1.0

            alpha_to_coverage off
            colour_write on
            cull_hardware clockwise
            depth_check on
            depth_func less_equal
            depth_write on
            illumination_stage 
            light_clip_planes off
            light_scissor off
            lighting on
            normalise_normals off
            polygon_mode solid
            scene_blend one zero
            scene_blend_op add
            shading gouraud
            transparent_sorting on

            texture_unit 
            {
                texture HighRiseResidential.png
                tex_address_mode wrap
                scale 1.0 1.0
                colour_op modulate
            }
        }
    }
}
// BuildingsExtra.016 genrated by blender2ogre 0.6.0

material BuildingsExtra.016 
{
    receive_shadows on 

    technique
    {
        pass BuildingsExtra.016
        {
            ambient 0.800000011920929 0.800000011920929 0.800000011920929 1.0
            diffuse 0.6400000190734865 0.6400000190734865 0.6400000190734865 1.0
            specular 0.5 0.5 0.5 1.0 12.5
            emissive 0.0 0.0 0.0 1.0

            alpha_to_coverage off
            colour_write on
            cull_hardware clockwise
            depth_check on
            depth_func less_equal
            depth_write on
            illumination_stage 
            light_clip_planes off
            light_scissor off
            lighting on
            normalise_normals off
            polygon_mode solid
            scene_blend one zero
            scene_blend_op add
            shading gouraud
            transparent_sorting on

            texture_unit 
            {
                texture BuildingsExtra.png
                tex_address_mode wrap
                scale 1.0 1.0
                colour_op modulate
            }
        }
    }
}
// HighRiseResidential_ground.016 genrated by blender2ogre 0.6.0

material HighRiseResidential_ground.016 
{
    receive_shadows on 

    technique
    {
        pass HighRiseResidential_ground.016
        {
            ambient 0.800000011920929 0.800000011920929 0.800000011920929 1.0
            diffuse 0.6400000190734865 0.6400000190734865 0.6400000190734865 1.0
            specular 0.5 0.5 0.5 1.0 12.5
            emissive 0.0 0.0 0.0 1.0

            alpha_to_coverage off
            colour_write on
            cull_hardware clockwise
            depth_check on
            depth_func less_equal
            depth_write on
            illumination_stage 
            light_clip_planes off
            light_scissor off
            lighting on
            normalise_normals off
            polygon_mode solid
            scene_blend one zero
            scene_blend_op add
            shading gouraud
            transparent_sorting on

            texture_unit 
            {
                texture HighRiseResidential_ground.png
                tex_address_mode wrap
                scale 1.0 1.0
                colour_op modulate
            }
        }
    }
}
// HighRiseResidential.005 genrated by blender2ogre 0.6.0

material HighRiseResidential.005 
{
    receive_shadows on 

    technique
    {
        pass HighRiseResidential.005
        {
            ambient 1.0 1.0 1.0 1.0
            diffuse 0.800000011920929 0.800000011920929 0.800000011920929 1.0
            specular 0.5 0.5 0.5 1.0 12.5
            emissive 0.0 0.0 0.0 1.0

            alpha_to_coverage off
            colour_write on
            cull_hardware clockwise
            depth_check on
            depth_func less_equal
            depth_write on
            illumination_stage 
            light_clip_planes off
            light_scissor off
            lighting on
            normalise_normals off
            polygon_mode solid
            scene_blend one zero
            scene_blend_op add
            shading gouraud
            transparent_sorting on

            texture_unit 
            {
                texture HighRiseResidential.png
                tex_address_mode wrap
                scale 1.0 1.0
                colour_op modulate
            }
        }
    }
}
// BuildingsExtra.007 genrated by blender2ogre 0.6.0

material BuildingsExtra.007 
{
    receive_shadows on 

    technique
    {
        pass BuildingsExtra.007
        {
            ambient 0.800000011920929 0.800000011920929 0.800000011920929 1.0
            diffuse 0.6400000190734865 0.6400000190734865 0.6400000190734865 1.0
            specular 0.5 0.5 0.5 1.0 12.5
            emissive 0.0 0.0 0.0 1.0

            alpha_to_coverage off
            colour_write on
            cull_hardware clockwise
            depth_check on
            depth_func less_equal
            depth_write on
            illumination_stage 
            light_clip_planes off
            light_scissor off
            lighting on
            normalise_normals off
            polygon_mode solid
            scene_blend one zero
            scene_blend_op add
            shading gouraud
            transparent_sorting on

            texture_unit 
            {
                texture BuildingsExtra.png
                tex_address_mode wrap
                scale 1.0 1.0
                colour_op modulate
            }
        }
    }
}
// HighRiseResidential_ground.007 genrated by blender2ogre 0.6.0

material HighRiseResidential_ground.007 
{
    receive_shadows on 

    technique
    {
        pass HighRiseResidential_ground.007
        {
            ambient 0.800000011920929 0.800000011920929 0.800000011920929 1.0
            diffuse 0.6400000190734865 0.6400000190734865 0.6400000190734865 1.0
            specular 0.5 0.5 0.5 1.0 12.5
            emissive 0.0 0.0 0.0 1.0

            alpha_to_coverage off
            colour_write on
            cull_hardware clockwise
            depth_check on
            depth_func less_equal
            depth_write on
            illumination_stage 
            light_clip_planes off
            light_scissor off
            lighting on
            normalise_normals off
            polygon_mode solid
            scene_blend one zero
            scene_blend_op add
            shading gouraud
            transparent_sorting on

            texture_unit 
            {
                texture HighRiseResidential_ground.png
                tex_address_mode wrap
                scale 1.0 1.0
                colour_op modulate
            }
        }
    }
}
// HighRiseResidential.006 genrated by blender2ogre 0.6.0

material HighRiseResidential.006 
{
    receive_shadows on 

    technique
    {
        pass HighRiseResidential.006
        {
            ambient 1.0 1.0 1.0 1.0
            diffuse 0.800000011920929 0.800000011920929 0.800000011920929 1.0
            specular 0.5 0.5 0.5 1.0 12.5
            emissive 0.0 0.0 0.0 1.0

            alpha_to_coverage off
            colour_write on
            cull_hardware clockwise
            depth_check on
            depth_func less_equal
            depth_write on
            illumination_stage 
            light_clip_planes off
            light_scissor off
            lighting on
            normalise_normals off
            polygon_mode solid
            scene_blend one zero
            scene_blend_op add
            shading gouraud
            transparent_sorting on

            texture_unit 
            {
                texture HighRiseResidential.png
                tex_address_mode wrap
                scale 1.0 1.0
                colour_op modulate
            }
        }
    }
}
// BuildingsExtra.008 genrated by blender2ogre 0.6.0

material BuildingsExtra.008 
{
    receive_shadows on 

    technique
    {
        pass BuildingsExtra.008
        {
            ambient 0.800000011920929 0.800000011920929 0.800000011920929 1.0
            diffuse 0.6400000190734865 0.6400000190734865 0.6400000190734865 1.0
            specular 0.5 0.5 0.5 1.0 12.5
            emissive 0.0 0.0 0.0 1.0

            alpha_to_coverage off
            colour_write on
            cull_hardware clockwise
            depth_check on
            depth_func less_equal
            depth_write on
            illumination_stage 
            light_clip_planes off
            light_scissor off
            lighting on
            normalise_normals off
            polygon_mode solid
            scene_blend one zero
            scene_blend_op add
            shading gouraud
            transparent_sorting on

            texture_unit 
            {
                texture BuildingsExtra.png
                tex_address_mode wrap
                scale 1.0 1.0
                colour_op modulate
            }
        }
    }
}
// HighRiseResidential_ground.008 genrated by blender2ogre 0.6.0

material HighRiseResidential_ground.008 
{
    receive_shadows on 

    technique
    {
        pass HighRiseResidential_ground.008
        {
            ambient 0.800000011920929 0.800000011920929 0.800000011920929 1.0
            diffuse 0.6400000190734865 0.6400000190734865 0.6400000190734865 1.0
            specular 0.5 0.5 0.5 1.0 12.5
            emissive 0.0 0.0 0.0 1.0

            alpha_to_coverage off
            colour_write on
            cull_hardware clockwise
            depth_check on
            depth_func less_equal
            depth_write on
            illumination_stage 
            light_clip_planes off
            light_scissor off
            lighting on
            normalise_normals off
            polygon_mode solid
            scene_blend one zero
            scene_blend_op add
            shading gouraud
            transparent_sorting on

            texture_unit 
            {
                texture HighRiseResidential_ground.png
                tex_address_mode wrap
                scale 1.0 1.0
                colour_op modulate
            }
        }
    }
}
// HighRiseResidential.010 genrated by blender2ogre 0.6.0

material HighRiseResidential.010 
{
    receive_shadows on 

    technique
    {
        pass HighRiseResidential.010
        {
            ambient 0.800000011920929 0.800000011920929 0.800000011920929 1.0
            diffuse 0.6400000190734865 0.6400000190734865 0.6400000190734865 1.0
            specular 0.5 0.5 0.5 1.0 12.5
            emissive 0.0 0.0 0.0 1.0

            alpha_to_coverage off
            colour_write on
            cull_hardware clockwise
            depth_check on
            depth_func less_equal
            depth_write on
            illumination_stage 
            light_clip_planes off
            light_scissor off
            lighting on
            normalise_normals off
            polygon_mode solid
            scene_blend one zero
            scene_blend_op add
            shading gouraud
            transparent_sorting on

            texture_unit 
            {
                texture HighRiseResidential.png
                tex_address_mode wrap
                scale 1.0 1.0
                colour_op modulate
            }
        }
    }
}
// BuildingsExtra.003 genrated by blender2ogre 0.6.0

material BuildingsExtra.003 
{
    receive_shadows on 

    technique
    {
        pass BuildingsExtra.003
        {
            ambient 0.800000011920929 0.800000011920929 0.800000011920929 1.0
            diffuse 0.6400000190734865 0.6400000190734865 0.6400000190734865 1.0
            specular 0.5 0.5 0.5 1.0 12.5
            emissive 0.0 0.0 0.0 1.0

            alpha_to_coverage off
            colour_write on
            cull_hardware clockwise
            depth_check on
            depth_func less_equal
            depth_write on
            illumination_stage 
            light_clip_planes off
            light_scissor off
            lighting on
            normalise_normals off
            polygon_mode solid
            scene_blend one zero
            scene_blend_op add
            shading gouraud
            transparent_sorting on

            texture_unit 
            {
                texture BuildingsExtra.png
                tex_address_mode wrap
                scale 1.0 1.0
                colour_op modulate
            }
        }
    }
}
// HighRiseResidential_ground.003 genrated by blender2ogre 0.6.0

material HighRiseResidential_ground.003 
{
    receive_shadows on 

    technique
    {
        pass HighRiseResidential_ground.003
        {
            ambient 0.800000011920929 0.800000011920929 0.800000011920929 1.0
            diffuse 0.6400000190734865 0.6400000190734865 0.6400000190734865 1.0
            specular 0.5 0.5 0.5 1.0 12.5
            emissive 0.0 0.0 0.0 1.0

            alpha_to_coverage off
            colour_write on
            cull_hardware clockwise
            depth_check on
            depth_func less_equal
            depth_write on
            illumination_stage 
            light_clip_planes off
            light_scissor off
            lighting on
            normalise_normals off
            polygon_mode solid
            scene_blend one zero
            scene_blend_op add
            shading gouraud
            transparent_sorting on

            texture_unit 
            {
                texture HighRiseResidential_ground.png
                tex_address_mode wrap
                scale 1.0 1.0
                colour_op modulate
            }
        }
    }
}
// HighRiseResidential.011 genrated by blender2ogre 0.6.0

material HighRiseResidential.011 
{
    receive_shadows on 

    technique
    {
        pass HighRiseResidential.011
        {
            ambient 0.800000011920929 0.800000011920929 0.800000011920929 1.0
            diffuse 0.6400000190734865 0.6400000190734865 0.6400000190734865 1.0
            specular 0.5 0.5 0.5 1.0 12.5
            emissive 0.0 0.0 0.0 1.0

            alpha_to_coverage off
            colour_write on
            cull_hardware clockwise
            depth_check on
            depth_func less_equal
            depth_write on
            illumination_stage 
            light_clip_planes off
            light_scissor off
            lighting on
            normalise_normals off
            polygon_mode solid
            scene_blend one zero
            scene_blend_op add
            shading gouraud
            transparent_sorting on

            texture_unit 
            {
                texture HighRiseResidential.png
                tex_address_mode wrap
                scale 1.0 1.0
                colour_op modulate
            }
        }
    }
}
// HighRiseResidential_ground.004 genrated by blender2ogre 0.6.0

material HighRiseResidential_ground.004 
{
    receive_shadows on 

    technique
    {
        pass HighRiseResidential_ground.004
        {
            ambient 0.800000011920929 0.800000011920929 0.800000011920929 1.0
            diffuse 0.6400000190734865 0.6400000190734865 0.6400000190734865 1.0
            specular 0.5 0.5 0.5 1.0 12.5
            emissive 0.0 0.0 0.0 1.0

            alpha_to_coverage off
            colour_write on
            cull_hardware clockwise
            depth_check on
            depth_func less_equal
            depth_write on
            illumination_stage 
            light_clip_planes off
            light_scissor off
            lighting on
            normalise_normals off
            polygon_mode solid
            scene_blend one zero
            scene_blend_op add
            shading gouraud
            transparent_sorting on

            texture_unit 
            {
                texture HighRiseResidential_ground.png
                tex_address_mode wrap
                scale 1.0 1.0
                colour_op modulate
            }
        }
    }
}
// BuildingsExtra.004 genrated by blender2ogre 0.6.0

material BuildingsExtra.004 
{
    receive_shadows on 

    technique
    {
        pass BuildingsExtra.004
        {
            ambient 0.800000011920929 0.800000011920929 0.800000011920929 1.0
            diffuse 0.6400000190734865 0.6400000190734865 0.6400000190734865 1.0
            specular 0.5 0.5 0.5 1.0 12.5
            emissive 0.0 0.0 0.0 1.0

            alpha_to_coverage off
            colour_write on
            cull_hardware clockwise
            depth_check on
            depth_func less_equal
            depth_write on
            illumination_stage 
            light_clip_planes off
            light_scissor off
            lighting on
            normalise_normals off
            polygon_mode solid
            scene_blend one zero
            scene_blend_op add
            shading gouraud
            transparent_sorting on

            texture_unit 
            {
                texture BuildingsExtra.png
                tex_address_mode wrap
                scale 1.0 1.0
                colour_op modulate
            }
        }
    }
}
// HighRiseResidential2 genrated by blender2ogre 0.6.0

material HighRiseResidential2 
{
    receive_shadows on 

    technique
    {
        pass HighRiseResidential2
        {
            ambient 0.800000011920929 0.800000011920929 0.800000011920929 1.0
            diffuse 0.6400000190734865 0.6400000190734865 0.6400000190734865 1.0
            specular 0.5 0.5 0.5 1.0 12.5
            emissive 0.0 0.0 0.0 1.0

            alpha_to_coverage off
            colour_write on
            cull_hardware clockwise
            depth_check on
            depth_func less_equal
            depth_write on
            illumination_stage 
            light_clip_planes off
            light_scissor off
            lighting on
            normalise_normals off
            polygon_mode solid
            scene_blend one zero
            scene_blend_op add
            shading gouraud
            transparent_sorting on

            texture_unit 
            {
                texture HighRiseResidential2.png
                tex_address_mode wrap
                scale 1.0 1.0
                colour_op modulate
            }
        }
    }
}
// BuildingsExtra.012 genrated by blender2ogre 0.6.0

material BuildingsExtra.012 
{
    receive_shadows on 

    technique
    {
        pass BuildingsExtra.012
        {
            ambient 0.800000011920929 0.800000011920929 0.800000011920929 1.0
            diffuse 0.6400000190734865 0.6400000190734865 0.6400000190734865 1.0
            specular 0.5 0.5 0.5 1.0 12.5
            emissive 0.0 0.0 0.0 1.0

            alpha_to_coverage off
            colour_write on
            cull_hardware clockwise
            depth_check on
            depth_func less_equal
            depth_write on
            illumination_stage 
            light_clip_planes off
            light_scissor off
            lighting on
            normalise_normals off
            polygon_mode solid
            scene_blend one zero
            scene_blend_op add
            shading gouraud
            transparent_sorting on

            texture_unit 
            {
                texture BuildingsExtra.png
                tex_address_mode wrap
                scale 1.0 1.0
                colour_op modulate
            }
        }
    }
}
// HighRiseResidential_ground.012 genrated by blender2ogre 0.6.0

material HighRiseResidential_ground.012 
{
    receive_shadows on 

    technique
    {
        pass HighRiseResidential_ground.012
        {
            ambient 0.800000011920929 0.800000011920929 0.800000011920929 1.0
            diffuse 0.6400000190734865 0.6400000190734865 0.6400000190734865 1.0
            specular 0.5 0.5 0.5 1.0 12.5
            emissive 0.0 0.0 0.0 1.0

            alpha_to_coverage off
            colour_write on
            cull_hardware clockwise
            depth_check on
            depth_func less_equal
            depth_write on
            illumination_stage 
            light_clip_planes off
            light_scissor off
            lighting on
            normalise_normals off
            polygon_mode solid
            scene_blend one zero
            scene_blend_op add
            shading gouraud
            transparent_sorting on

            texture_unit 
            {
                texture HighRiseResidential_ground.png
                tex_address_mode wrap
                scale 1.0 1.0
                colour_op modulate
            }
        }
    }
}
// HighRiseResidential.012 genrated by blender2ogre 0.6.0

material HighRiseResidential.012 
{
    receive_shadows on 

    technique
    {
        pass HighRiseResidential.012
        {
            ambient 0.800000011920929 0.800000011920929 0.800000011920929 1.0
            diffuse 0.6400000190734865 0.6400000190734865 0.6400000190734865 1.0
            specular 0.5 0.5 0.5 1.0 12.5
            emissive 0.0 0.0 0.0 1.0

            alpha_to_coverage off
            colour_write on
            cull_hardware clockwise
            depth_check on
            depth_func less_equal
            depth_write on
            illumination_stage 
            light_clip_planes off
            light_scissor off
            lighting on
            normalise_normals off
            polygon_mode solid
            scene_blend one zero
            scene_blend_op add
            shading gouraud
            transparent_sorting on

            texture_unit 
            {
                texture HighRiseResidential.png
                tex_address_mode wrap
                scale 1.0 1.0
                colour_op modulate
            }
        }
    }
}
// BuildingsExtra.013 genrated by blender2ogre 0.6.0

material BuildingsExtra.013 
{
    receive_shadows on 

    technique
    {
        pass BuildingsExtra.013
        {
            ambient 0.800000011920929 0.800000011920929 0.800000011920929 1.0
            diffuse 0.6400000190734865 0.6400000190734865 0.6400000190734865 1.0
            specular 0.5 0.5 0.5 1.0 12.5
            emissive 0.0 0.0 0.0 1.0

            alpha_to_coverage off
            colour_write on
            cull_hardware clockwise
            depth_check on
            depth_func less_equal
            depth_write on
            illumination_stage 
            light_clip_planes off
            light_scissor off
            lighting on
            normalise_normals off
            polygon_mode solid
            scene_blend one zero
            scene_blend_op add
            shading gouraud
            transparent_sorting on

            texture_unit 
            {
                texture BuildingsExtra.png
                tex_address_mode wrap
                scale 1.0 1.0
                colour_op modulate
            }
        }
    }
}
// HighRiseResidential_ground.013 genrated by blender2ogre 0.6.0

material HighRiseResidential_ground.013 
{
    receive_shadows on 

    technique
    {
        pass HighRiseResidential_ground.013
        {
            ambient 0.800000011920929 0.800000011920929 0.800000011920929 1.0
            diffuse 0.6400000190734865 0.6400000190734865 0.6400000190734865 1.0
            specular 0.5 0.5 0.5 1.0 12.5
            emissive 0.0 0.0 0.0 1.0

            alpha_to_coverage off
            colour_write on
            cull_hardware clockwise
            depth_check on
            depth_func less_equal
            depth_write on
            illumination_stage 
            light_clip_planes off
            light_scissor off
            lighting on
            normalise_normals off
            polygon_mode solid
            scene_blend one zero
            scene_blend_op add
            shading gouraud
            transparent_sorting on

            texture_unit 
            {
                texture HighRiseResidential_ground.png
                tex_address_mode wrap
                scale 1.0 1.0
                colour_op modulate
            }
        }
    }
}
// HighRiseResidential.013 genrated by blender2ogre 0.6.0

material HighRiseResidential.013 
{
    receive_shadows on 

    technique
    {
        pass HighRiseResidential.013
        {
            ambient 0.800000011920929 0.800000011920929 0.800000011920929 1.0
            diffuse 0.6400000190734865 0.6400000190734865 0.6400000190734865 1.0
            specular 0.5 0.5 0.5 1.0 12.5
            emissive 0.0 0.0 0.0 1.0

            alpha_to_coverage off
            colour_write on
            cull_hardware clockwise
            depth_check on
            depth_func less_equal
            depth_write on
            illumination_stage 
            light_clip_planes off
            light_scissor off
            lighting on
            normalise_normals off
            polygon_mode solid
            scene_blend one zero
            scene_blend_op add
            shading gouraud
            transparent_sorting on

            texture_unit 
            {
                texture HighRiseResidential.png
                tex_address_mode wrap
                scale 1.0 1.0
                colour_op modulate
            }
        }
    }
}
// BuildingsExtra.014 genrated by blender2ogre 0.6.0

material BuildingsExtra.014 
{
    receive_shadows on 

    technique
    {
        pass BuildingsExtra.014
        {
            ambient 0.800000011920929 0.800000011920929 0.800000011920929 1.0
            diffuse 0.6400000190734865 0.6400000190734865 0.6400000190734865 1.0
            specular 0.5 0.5 0.5 1.0 12.5
            emissive 0.0 0.0 0.0 1.0

            alpha_to_coverage off
            colour_write on
            cull_hardware clockwise
            depth_check on
            depth_func less_equal
            depth_write on
            illumination_stage 
            light_clip_planes off
            light_scissor off
            lighting on
            normalise_normals off
            polygon_mode solid
            scene_blend one zero
            scene_blend_op add
            shading gouraud
            transparent_sorting on

            texture_unit 
            {
                texture BuildingsExtra.png
                tex_address_mode wrap
                scale 1.0 1.0
                colour_op modulate
            }
        }
    }
}
// HighRiseResidential_ground.014 genrated by blender2ogre 0.6.0

material HighRiseResidential_ground.014 
{
    receive_shadows on 

    technique
    {
        pass HighRiseResidential_ground.014
        {
            ambient 0.800000011920929 0.800000011920929 0.800000011920929 1.0
            diffuse 0.6400000190734865 0.6400000190734865 0.6400000190734865 1.0
            specular 0.5 0.5 0.5 1.0 12.5
            emissive 0.0 0.0 0.0 1.0

            alpha_to_coverage off
            colour_write on
            cull_hardware clockwise
            depth_check on
            depth_func less_equal
            depth_write on
            illumination_stage 
            light_clip_planes off
            light_scissor off
            lighting on
            normalise_normals off
            polygon_mode solid
            scene_blend one zero
            scene_blend_op add
            shading gouraud
            transparent_sorting on

            texture_unit 
            {
                texture HighRiseResidential_ground.png
                tex_address_mode wrap
                scale 1.0 1.0
                colour_op modulate
            }
        }
    }
}
// HighRiseResidential.014 genrated by blender2ogre 0.6.0

material HighRiseResidential.014 
{
    receive_shadows on 

    technique
    {
        pass HighRiseResidential.014
        {
            ambient 0.8078431487083435 0.8078431487083435 0.8078431487083435 1.0
            diffuse 0.6462745285969156 0.6462745285969156 0.6462745285969156 1.0
            specular 0.10000000149011612 0.10000000149011612 0.10000000149011612 1.0 12.5
            emissive 0.0 0.0 0.0 1.0

            alpha_to_coverage off
            colour_write on
            cull_hardware clockwise
            depth_check on
            depth_func less_equal
            depth_write on
            illumination_stage 
            light_clip_planes off
            light_scissor off
            lighting on
            normalise_normals off
            polygon_mode solid
            scene_blend one zero
            scene_blend_op add
            shading gouraud
            transparent_sorting on

            texture_unit 
            {
                texture HighRiseResidential.png
                tex_address_mode wrap
                scale 1.0 1.0
                colour_op modulate
            }
        }
    }
}
// BuildingsExtra.015 genrated by blender2ogre 0.6.0

material BuildingsExtra.015 
{
    receive_shadows on 

    technique
    {
        pass BuildingsExtra.015
        {
            ambient 0.800000011920929 0.800000011920929 0.800000011920929 1.0
            diffuse 0.6400000190734865 0.6400000190734865 0.6400000190734865 1.0
            specular 0.5 0.5 0.5 1.0 12.5
            emissive 0.0 0.0 0.0 1.0

            alpha_to_coverage off
            colour_write on
            cull_hardware clockwise
            depth_check on
            depth_func less_equal
            depth_write on
            illumination_stage 
            light_clip_planes off
            light_scissor off
            lighting on
            normalise_normals off
            polygon_mode solid
            scene_blend one zero
            scene_blend_op add
            shading gouraud
            transparent_sorting on

            texture_unit 
            {
                texture BuildingsExtra.png
                tex_address_mode wrap
                scale 1.0 1.0
                colour_op modulate
            }
        }
    }
}
// HighRiseResidential_ground.015 genrated by blender2ogre 0.6.0

material HighRiseResidential_ground.015 
{
    receive_shadows on 

    technique
    {
        pass HighRiseResidential_ground.015
        {
            ambient 0.800000011920929 0.800000011920929 0.800000011920929 1.0
            diffuse 0.6400000190734865 0.6400000190734865 0.6400000190734865 1.0
            specular 0.5 0.5 0.5 1.0 12.5
            emissive 0.0 0.0 0.0 1.0

            alpha_to_coverage off
            colour_write on
            cull_hardware clockwise
            depth_check on
            depth_func less_equal
            depth_write on
            illumination_stage 
            light_clip_planes off
            light_scissor off
            lighting on
            normalise_normals off
            polygon_mode solid
            scene_blend one zero
            scene_blend_op add
            shading gouraud
            transparent_sorting on

            texture_unit 
            {
                texture HighRiseResidential_ground.png
                tex_address_mode wrap
                scale 1.0 1.0
                colour_op modulate
            }
        }
    }
}
// HighRiseResidential.016 genrated by blender2ogre 0.6.0

material HighRiseResidential.016 
{
    receive_shadows on 

    technique
    {
        pass HighRiseResidential.016
        {
            ambient 0.800000011920929 0.800000011920929 0.800000011920929 1.0
            diffuse 0.6400000190734865 0.6400000190734865 0.6400000190734865 1.0
            specular 0.5 0.5 0.5 1.0 12.5
            emissive 0.0 0.0 0.0 1.0

            alpha_to_coverage off
            colour_write on
            cull_hardware clockwise
            depth_check on
            depth_func less_equal
            depth_write on
            illumination_stage 
            light_clip_planes off
            light_scissor off
            lighting on
            normalise_normals off
            polygon_mode solid
            scene_blend one zero
            scene_blend_op add
            shading gouraud
            transparent_sorting on

            texture_unit 
            {
                texture HighRiseResidential.png
                tex_address_mode wrap
                scale 1.0 1.0
                colour_op modulate
            }
        }
    }
}
// BuildingsExtra.017 genrated by blender2ogre 0.6.0

material BuildingsExtra.017 
{
    receive_shadows on 

    technique
    {
        pass BuildingsExtra.017
        {
            ambient 0.800000011920929 0.800000011920929 0.800000011920929 1.0
            diffuse 0.6400000190734865 0.6400000190734865 0.6400000190734865 1.0
            specular 0.5 0.5 0.5 1.0 12.5
            emissive 0.0 0.0 0.0 1.0

            alpha_to_coverage off
            colour_write on
            cull_hardware clockwise
            depth_check on
            depth_func less_equal
            depth_write on
            illumination_stage 
            light_clip_planes off
            light_scissor off
            lighting on
            normalise_normals off
            polygon_mode solid
            scene_blend one zero
            scene_blend_op add
            shading gouraud
            transparent_sorting on

            texture_unit 
            {
                texture BuildingsExtra.png
                tex_address_mode wrap
                scale 1.0 1.0
                colour_op modulate
            }
        }
    }
}
// HighRiseResidential_ground.017 genrated by blender2ogre 0.6.0

material HighRiseResidential_ground.017 
{
    receive_shadows on 

    technique
    {
        pass HighRiseResidential_ground.017
        {
            ambient 0.800000011920929 0.800000011920929 0.800000011920929 1.0
            diffuse 0.6400000190734865 0.6400000190734865 0.6400000190734865 1.0
            specular 0.5 0.5 0.5 1.0 12.5
            emissive 0.0 0.0 0.0 1.0

            alpha_to_coverage off
            colour_write on
            cull_hardware clockwise
            depth_check on
            depth_func less_equal
            depth_write on
            illumination_stage 
            light_clip_planes off
            light_scissor off
            lighting on
            normalise_normals off
            polygon_mode solid
            scene_blend one zero
            scene_blend_op add
            shading gouraud
            transparent_sorting on

            texture_unit 
            {
                texture HighRiseResidential_ground.png
                tex_address_mode wrap
                scale 1.0 1.0
                colour_op modulate
            }
        }
    }
}
// HighRiseResidential2.001 genrated by blender2ogre 0.6.0

material HighRiseResidential2.001 
{
    receive_shadows on 

    technique
    {
        pass HighRiseResidential2.001
        {
            ambient 0.800000011920929 0.800000011920929 0.800000011920929 1.0
            diffuse 0.6400000190734865 0.6400000190734865 0.6400000190734865 1.0
            specular 0.5 0.5 0.5 1.0 12.5
            emissive 0.0 0.0 0.0 1.0

            alpha_to_coverage off
            colour_write on
            cull_hardware clockwise
            depth_check on
            depth_func less_equal
            depth_write on
            illumination_stage 
            light_clip_planes off
            light_scissor off
            lighting on
            normalise_normals off
            polygon_mode solid
            scene_blend one zero
            scene_blend_op add
            shading gouraud
            transparent_sorting on

            texture_unit 
            {
                texture HighRiseResidential2.png
                tex_address_mode wrap
                scale 1.0 1.0
                colour_op modulate
            }
        }
    }
}
// BuildingsExtra.018 genrated by blender2ogre 0.6.0

material BuildingsExtra.018 
{
    receive_shadows on 

    technique
    {
        pass BuildingsExtra.018
        {
            ambient 0.800000011920929 0.800000011920929 0.800000011920929 1.0
            diffuse 0.6400000190734865 0.6400000190734865 0.6400000190734865 1.0
            specular 0.5 0.5 0.5 1.0 12.5
            emissive 0.0 0.0 0.0 1.0

            alpha_to_coverage off
            colour_write on
            cull_hardware clockwise
            depth_check on
            depth_func less_equal
            depth_write on
            illumination_stage 
            light_clip_planes off
            light_scissor off
            lighting on
            normalise_normals off
            polygon_mode solid
            scene_blend one zero
            scene_blend_op add
            shading gouraud
            transparent_sorting on

            texture_unit 
            {
                texture BuildingsExtra.png
                tex_address_mode wrap
                scale 1.0 1.0
                colour_op modulate
            }
        }
    }
}
// HighRiseResidential_ground.018 genrated by blender2ogre 0.6.0

material HighRiseResidential_ground.018 
{
    receive_shadows on 

    technique
    {
        pass HighRiseResidential_ground.018
        {
            ambient 0.800000011920929 0.800000011920929 0.800000011920929 1.0
            diffuse 0.6400000190734865 0.6400000190734865 0.6400000190734865 1.0
            specular 0.5 0.5 0.5 1.0 12.5
            emissive 0.0 0.0 0.0 1.0

            alpha_to_coverage off
            colour_write on
            cull_hardware clockwise
            depth_check on
            depth_func less_equal
            depth_write on
            illumination_stage 
            light_clip_planes off
            light_scissor off
            lighting on
            normalise_normals off
            polygon_mode solid
            scene_blend one zero
            scene_blend_op add
            shading gouraud
            transparent_sorting on

            texture_unit 
            {
                texture HighRiseResidential_ground.png
                tex_address_mode wrap
                scale 1.0 1.0
                colour_op modulate
            }
        }
    }
}
// HighRiseResidential.017 genrated by blender2ogre 0.6.0

material HighRiseResidential.017 
{
    receive_shadows on 

    technique
    {
        pass HighRiseResidential.017
        {
            ambient 0.800000011920929 0.800000011920929 0.800000011920929 1.0
            diffuse 0.6400000190734865 0.6400000190734865 0.6400000190734865 1.0
            specular 0.5 0.5 0.5 1.0 12.5
            emissive 0.0 0.0 0.0 1.0

            alpha_to_coverage off
            colour_write on
            cull_hardware clockwise
            depth_check on
            depth_func less_equal
            depth_write on
            illumination_stage 
            light_clip_planes off
            light_scissor off
            lighting on
            normalise_normals off
            polygon_mode solid
            scene_blend one zero
            scene_blend_op add
            shading gouraud
            transparent_sorting on

            texture_unit 
            {
                texture HighRiseResidential.png
                tex_address_mode wrap
                scale 1.0 1.0
                colour_op modulate
            }
        }
    }
}
// BuildingsExtra.019 genrated by blender2ogre 0.6.0

material BuildingsExtra.019 
{
    receive_shadows on 

    technique
    {
        pass BuildingsExtra.019
        {
            ambient 0.800000011920929 0.800000011920929 0.800000011920929 1.0
            diffuse 0.6400000190734865 0.6400000190734865 0.6400000190734865 1.0
            specular 0.5 0.5 0.5 1.0 12.5
            emissive 0.0 0.0 0.0 1.0

            alpha_to_coverage off
            colour_write on
            cull_hardware clockwise
            depth_check on
            depth_func less_equal
            depth_write on
            illumination_stage 
            light_clip_planes off
            light_scissor off
            lighting on
            normalise_normals off
            polygon_mode solid
            scene_blend one zero
            scene_blend_op add
            shading gouraud
            transparent_sorting on

            texture_unit 
            {
                texture BuildingsExtra.png
                tex_address_mode wrap
                scale 1.0 1.0
                colour_op modulate
            }
        }
    }
}
// HighRiseResidential_ground.019 genrated by blender2ogre 0.6.0

material HighRiseResidential_ground.019 
{
    receive_shadows on 

    technique
    {
        pass HighRiseResidential_ground.019
        {
            ambient 0.800000011920929 0.800000011920929 0.800000011920929 1.0
            diffuse 0.6400000190734865 0.6400000190734865 0.6400000190734865 1.0
            specular 0.5 0.5 0.5 1.0 12.5
            emissive 0.0 0.0 0.0 1.0

            alpha_to_coverage off
            colour_write on
            cull_hardware clockwise
            depth_check on
            depth_func less_equal
            depth_write on
            illumination_stage 
            light_clip_planes off
            light_scissor off
            lighting on
            normalise_normals off
            polygon_mode solid
            scene_blend one zero
            scene_blend_op add
            shading gouraud
            transparent_sorting on

            texture_unit 
            {
                texture HighRiseResidential_ground.png
                tex_address_mode wrap
                scale 1.0 1.0
                colour_op modulate
            }
        }
    }
}
